0, 115
10, 115
21, 115
32, 115
42, 115
52, 115
63, 115
74, 115
84, 115
94, 115
105, 115
116, 115
126, 115
136, 115
147, 115
158, 115
168, 115
179, 115
189, 115
199, 115
210, 115
221, 115
231, 115
241, 115
253, 115
263, 115
273, 115
283, 115
295, 115
305, 115
315, 115
326, 115
337, 115
347, 115
357, 115
368, 115
379, 115
389, 115
400, 115
410, 115
421, 115
431, 115
442, 115
452, 115
463, 115
474, 115
484, 115
494, 115
506, 115
516, 115
526, 115
536, 115
548, 115
558, 115
568, 114
579, 114
590, 113
600, 113
610, 113
621, 112
632, 112
642, 112
653, 111
663, 111
674, 110
684, 110
695, 110
705, 110
716, 110
727, 110
737, 110
747, 109
758, 109
769, 109
779, 109
789, 109
801, 109
811, 109
821, 109
831, 109
843, 109
853, 109
863, 108
874, 108
885, 108
895, 108
905, 108
916, 108
927, 108
937, 107
948, 107
958, 106
969, 106
979, 106
990, 105
1000, 105
1010, 104
1022, 104
1032, 104
1042, 103
1054, 103
1064, 102
1074, 102
1085, 102
1095, 101
1106, 101
1117, 101
1127, 101
1137, 101
1149, 101
1159, 101
1169, 101
1180, 101
1191, 101
1201, 101
1212, 101
1222, 101
1233, 101
1244, 101
1254, 101
1264, 101
1276, 101
1286, 100
1296, 100
1307, 100
1318, 100
1328, 99
1339, 99
1349, 99
1360, 98
1370, 98
1381, 98
1391, 97
1402, 97
1413, 96
1423, 96
1433, 96
1444, 96
1455, 95
1465, 95
1475, 95
1487, 95
1497, 95
1507, 94
1517, 94
1529, 94
1539, 94
1549, 94
1560, 94
1571, 94
1581, 94
1592, 94
1602, 94
1613, 94
1623, 94
1634, 94
1644, 94
1655, 93
1666, 93
1676, 93
1686, 92
1697, 92
1708, 92
1718, 92
1728, 91
1740, 91
1750, 91
1760, 90
1770, 90
1782, 90
1792, 89
1802, 89
1813, 89
1824, 88
1834, 88
1844, 88
1855, 87
1866, 87
1876, 87
1887, 87
1897, 87
1908, 87
1919, 86
1929, 86
1939, 86
1950, 86
1961, 86
1971, 86
1981, 86
1993, 86
2003, 86
2013, 86
2023, 86
2034, 85
2045, 85
2055, 85
2066, 85
2076, 85
2087, 85
2097, 85
2108, 84
2118, 84
2129, 84
2140, 84
2150, 83
2160, 83
2171, 83
2182, 83
2192, 83
2202, 83
2214, 83
2224, 82
2234, 82
2244, 82
2256, 82
2266, 82
2276, 82
2287, 82
2298, 81
2308, 81
2319, 81
2329, 81
2340, 81
2350, 81
2361, 81
2371, 81
2382, 81
2393, 81
2403, 81
2413, 81
2424, 81
2435, 81
2445, 81
2455, 81
2467, 80
2477, 80
2487, 80
2497, 80
2509, 80
2519, 79
2529, 79
2540, 79
2551, 79
2561, 78
2571, 78
2582, 78
2593, 77
2603, 77
2614, 77
2624, 77
2635, 77
2645, 77
2656, 77
2666, 76
2677, 76
2688, 76
2698, 76
2708, 76
2720, 76
2730, 76
2740, 76
2750, 76
2762, 75
2772, 75
2782, 75
2793, 75
2804, 75
2814, 75
2824, 75
2835, 75
2846, 75
2856, 75
2867, 74
2877, 74
2887, 74
2898, 74
2909, 73
2919, 73
2929, 73
2941, 73
2951, 73
2961, 72
2971, 72
2983, 72
2993, 72
3003, 72
3014, 72
3025, 72
3035, 72
3045, 72
3056, 72
3067, 72
3077, 72
3088, 72
3098, 72
3109, 72
3119, 72
3130, 72
3140, 72
3151, 72
3162, 72
3172, 72
3182, 72
3193, 72
3204, 72
3214, 72
3224, 71
3236, 71
3246, 71
3256, 71
3266, 71
3278, 71
3288, 70
3298, 70
3309, 70
3320, 70
3330, 69
3341, 69
3351, 69
3362, 69
3372, 69
3383, 69
3393, 68
3404, 68
3415, 68
3425, 68
3435, 68
3446, 68
3457, 68
3467, 68
3477, 68
3489, 67
3499, 67
3509, 67
3519, 67
3531, 67
3541, 67
3551, 67
3562, 67
3573, 67
3583, 67
3593, 67
3604, 66
3615, 66
3625, 66
3636, 66
3646, 66
3657, 66
3667, 66
3678, 66
3688, 65
3698, 65
3710, 65
3720, 64
3730, 64
3740, 64
3752, 64
3762, 64
3772, 64
3783, 63
3794, 63
3804, 63
3815, 63
3825, 62
3836, 62
3846, 62
3857, 62
3867, 61
3878, 61
3889, 61
3899, 61
3909, 60
3920, 60
3931, 60
3941, 60
3951, 60
3963, 60
3973, 59
3983, 59
3993, 59
4005, 59
4015, 58
4025, 58
4036, 58
4047, 58
4057, 58
4067, 58
4078, 57
4089, 57
4099, 57
4110, 57
4120, 57
4131, 57
4141, 57
4152, 57
4162, 57
4173, 57
4184, 57
4194, 56
4204, 56
4216, 56
4226, 56
4236, 56
4246, 56
4258, 55
4268, 55
4278, 55
4289, 55
4300, 55
4310, 55
4320, 55
4331, 54
4342, 54
4352, 54
4363, 54
4373, 54
4384, 54
4394, 54
4405, 53
4415, 53
4426, 53
4437, 53
4447, 53
4457, 53
4468, 53
4479, 53
4489, 52
4499, 52
4511, 52
4521, 52
4531, 52
4541, 52
4553, 52
4563, 52
4573, 52
4584, 52
4594, 52
4605, 52
4615, 52
4626, 52
4636, 51
4647, 51
4658, 51
4668, 51
4678, 51
4689, 51
4700, 51
4710, 51
4720, 51
4732, 51
4742, 51
4752, 51
4763, 51
4774, 50
4784, 50
4794, 50
4805, 50
4816, 50
4826, 50
4837, 50
4847, 49
4858, 49
4868, 49
4879, 49
4889, 49
4900, 49
4911, 49
4921, 48
4931, 48
4942, 48
4953, 48
4963, 48
4973, 48
4985, 48
4995, 48
5005, 47
5015, 47
5027, 47
5037, 47
5047, 47
5058, 47
5069, 46
5079, 46
5089, 46
5100, 46
5111, 46
5121, 46
5132, 46
5142, 46
5153, 46
5163, 45
5174, 45
5184, 45
5195, 45
5206, 45
5216, 45
5226, 45
5238, 45
5248, 45
5258, 45
5268, 45
5280, 45
5290, 45
5300, 44
5311, 44
5322, 44
5332, 44
5342, 44
5353, 44
5364, 44
5374, 44
5385, 43
5395, 43
5406, 43
5416, 43
5427, 43
5437, 43
5447, 43
5459, 42
5469, 42
5479, 42
5489, 42
5501, 42
5511, 42
5521, 42
5532, 42
5543, 42
5553, 42
5563, 42
5574, 42
5585, 42
5595, 42
5606, 42
5616, 42
5627, 41
5637, 41
5648, 41
5658, 41
5669, 41
5680, 41
5690, 41
5700, 41
5711, 40
5722, 40
5732, 40
5742, 40
5754, 40
5764, 40
5774, 40
5784, 40
5796, 40
5806, 39
5816, 39
5827, 39
5838, 39
5848, 39
5859, 39
5869, 39
5880, 39
5890, 39
5901, 38
5911, 38
5922, 38
5933, 38
5943, 38
5953, 38
5964, 37
5975, 37
5985, 37
5995, 37
6007, 37
6017, 37
6027, 37
6037, 37
6049, 36
6059, 36
6069, 36
6080, 36
6091, 35
6101, 35
6111, 35
6122, 35
6133, 35
6143, 34
6154, 34
6164, 34
6175, 34
6185, 34
6196, 34
6206, 33
6217, 33
6228, 33
6238, 33
6248, 33
6258, 32
6270, 32
6280, 32
6290, 32
6302, 32
6312, 31
6322, 31
6332, 31
6343, 31
6354, 31
6364, 31
6375, 31
6385, 31
6396, 30
6407, 30
6417, 30
6427, 30
6438, 30
6449, 29
6459, 29
6469, 29
6481, 29
6491, 29
6501, 29
6511, 29
6523, 28
6533, 28
6543, 28
6554, 28
6565, 28
6575, 28
6585, 27
6596, 27
6607, 27
6617, 27
6628, 27
6638, 27
6649, 27
6659, 27
6670, 27
6680, 26
6691, 26
6702, 26
6712, 26
6722, 26
6733, 25
6744, 25
6754, 25
6764, 25
6776, 25
6786, 25
6796, 25
6806, 24
6818, 24
6828, 24
6838, 24
6849, 24
6860, 24
6870, 23
6881, 23
6891, 23
6902, 23
6912, 23
6923, 23
6933, 22
6944, 22
6955, 22
6965, 22
6975, 22
6986, 21
6997, 21
7007, 21
7017, 21
7029, 21
7039, 20
7049, 20
7059, 20
7071, 20
7081, 20
7091, 20
7102, 20
7113, 20
7123, 19
7133, 19
7144, 19
7154, 19
7165, 19
7176, 19
7186, 19
7196, 19
7207, 18
7218, 18
7228, 18
7238, 18
7250, 18
7260, 17
7270, 17
7280, 17
7292, 17
7302, 17
7312, 17
7323, 16
7334, 16
7344, 16
7355, 16
7365, 16
7376, 16
7386, 16
7397, 15
7407, 15
7418, 15
7429, 15
7439, 15
7449, 15
7460, 15
7471, 15
7481, 15
7491, 15
7503, 15
7513, 15
7523, 15
7533, 15
7545, 15
7555, 14
7565, 14
7576, 14
7587, 14
7597, 14
7607, 14
7618, 14
7629, 14
7639, 14
7650, 13
7660, 13
7671, 13
7681, 13
7692, 13
7702, 13
7713, 13
7724, 12
7734, 12
7744, 12
7755, 12
7766, 12
7776, 11
7786, 11
7798, 11
7808, 11
7818, 10
7829, 10
7840, 10
7850, 10
7860, 10
7871, 10
7882, 10
7892, 10
7903, 10
7913, 9
7924, 9
7934, 9
7945, 9
7955, 9
7966, 9
7976, 9
7987, 9
7997, 9
8007, 9
8018, 8
8029, 8
8039, 8
8049, 8
8060, 8
8071, 8
8081, 8
8091, 8
8102, 8
8113, 8
8123, 8
8133, 7
8144, 7
8155, 7
8165, 7
8175, 7
8186, 7
8197, 6
8207, 6
8217, 6
8228, 5
8239, 5
8249, 5
8259, 5
8270, 4
8281, 4
8291, 4
8301, 4
8312, 4
8323, 3
8333, 3
8343, 3
8354, 3
8365, 3
8375, 3
8385, 2
8396, 2
8407, 1
8417, 1
8427, 1
8438, 1
8449, 1
8459, 1
8469, 1
8480, 0
8491, 0
8501, 0
8511, 0
8523, 0
8533, 0
8543, 0
8553, 0
8565, 0
8575, 0
8585, 0
8595, 0
8607, 0
8617, 0
8627, 0
8637, 0
8649, 0
8659, 0
8669, 0
8679, 0
8690, 0
8701, 0
8711, 0
8721, 0
8732, 0
8743, 0
8753, 0
8763, 0
8774, 0
8785, 0
8795, 0
8805, 0
8816, 0
8827, 0
8837, 0
8847, 0
8858, 0
8869, 0
8879, 0
8890, 0
8900, 0
8911, 0
8921, 0
8932, 0
8942, 0
8953, 0
8963, 0
8974, 0
8984, 0
8995, 0
9005, 0
9016, 0
9026, 0
9037, 0
9047, 0
9058, 0
9068, 0
9079, 0
9089, 0
9100, 0
9110, 0
9121, 0
9131, 0
9142, 0
9152, 0
9163, 0
9173, 0
9184, 0
9194, 0
9205, 0
9216, 0
9226, 0
9236, 0
9247, 0
9258, 0
9268, 0
9278, 0
9289, 0
9300, 0
9310, 0
9320, 0
9330, 0
9342, 0
9352, 0
9362, 0
9372, 0
9384, 0
9394, 0
9404, 0
9414, 0
9426, 0
9436, 0
9446, 0
9456, 0
9468, 0
9478, 0
9488, 0
9498, 0
9510, 0
9520, 0
9530, 0
9541, 0
9552, 0
9562, 0
9572, 0
9583, 0
9594, 0
9604, 0
9614, 0
9625, 0
9636, 0
9646, 0
9656, 0
9667, 0
9678, 0
9688, 0
9698, 0
9709, 0
9720, 0
9730, 0
9740, 0
9751, 0
9762, 0
9772, 0
9782, 0
9793, 0
9804, 0
9814, 0
9824, 0
9835, 0
9846, 0
9856, 0
9866, 0
9877, 0
9888, 0
9898, 0
9908, 0
9919, 0
9930, 0
9940, 0
9951, 0
9961, 0
9972, 0
9982, 0
9993, 0
10003, 0
10014, 0
10024, 0
10035, 0
10045, 0
10055, 0
10067, 0
10077, 0
10087, 0
10097, 0
10109, 0
10119, 0
10129, 0
10140, 0
10151, 0
10161, 0
10172, 0
10182, 0
10193, 0
10203, 0
10214, 0
10224, 0
10235, 0
10246, 0
10256, 0
10266, 0
10277, 0
10288, 0
10298, 0
10308, 0
10320, 0
10330, 0
