0, 0
11, 0
22, 0
32, 0
42, 0
52, 0
63, 0
74, 0
84, 0
94, 0
105, 0
115, 0
126, 0
136, 0
146, 0
157, 0
167, 0
178, 0
188, 0
199, 0
209, 0
220, 0
230, 0
241, 0
251, 0
261, 0
272, 0
283, 0
293, 0
303, 0
313, 0
325, 3
335, 9
345, 16
355, 23
367, 31
377, 39
387, 46
397, 54
409, 62
419, 73
429, 84
439, 97
451, 111
461, 125
471, 127
481, 136
493, 145
503, 153
513, 160
524, 165
535, 168
545, 169
555, 170
566, 170
577, 170
587, 170
598, 170
608, 170
619, 170
630, 170
640, 169
650, 165
661, 158
672, 147
682, 133
692, 127
704, 112
714, 91
724, 70
734, 51
746, 36
756, 23
766, 14
776, 9
788, 7
798, 7
808, 7
818, 7
828, 10
840, 18
850, 29
860, 43
870, 60
882, 80
892, 102
902, 127
913, 137
924, 150
934, 159
944, 165
955, 169
966, 173
976, 176
987, 177
997, 178
1008, 178
1018, 178
1029, 178
1039, 178
1050, 176
1061, 171
1071, 163
1081, 153
1093, 141
1103, 127
1113, 123
1124, 104
1135, 82
1145, 63
1156, 46
1166, 34
1177, 27
1188, 22
