1, 0
12, 0
22, 0
32, 0
42, 0
54, 0
64, 0
74, 0
84, 0
95, 0
105, 0
116, 0
126, 0
137, 0
147, 0
158, 0
168, 0
179, 0
189, 0
199, 0
210, 0
221, 0
231, 0
241, 0
252, 0
263, 0
273, 0
283, 0
293, 0
304, 0
315, 0
325, 0
335, 0
345, 0
357, 0
367, 0
377, 0
387, 0
399, 0
409, 0
419, 0
429, 0
440, 0
451, 0
461, 0
471, 1
482, 1
492, 3
503, 3
513, 4
524, 5
534, 6
545, 7
555, 7
566, 8
576, 9
586, 10
597, 11
608, 11
618, 12
628, 13
639, 14
650, 15
660, 16
670, 17
681, 19
692, 19
702, 21
712, 21
723, 22
734, 23
744, 24
754, 26
765, 26
776, 28
786, 28
796, 29
807, 30
818, 31
828, 32
839, 33
849, 35
859, 35
870, 36
881, 37
891, 39
901, 40
912, 41
923, 44
933, 44
943, 45
954, 46
965, 47
975, 49
985, 50
996, 51
1007, 51
1017, 52
1027, 53
1038, 54
1049, 55
1059, 56
1069, 56
1081, 56
1091, 57
1101, 58
1111, 59
1123, 60
1133, 60
1143, 61
1154, 61
1165, 61
1175, 63
1186, 63
1196, 63
1207, 64
1217, 64
1228, 65
1238, 66
1249, 67
1260, 67
1270, 68
1280, 69
1291, 70
1302, 72
1312, 73
1322, 73
1334, 74
1344, 75
1354, 76
1364, 78
1376, 79
1386, 79
1396, 79
1407, 79
1418, 80
1428, 81
1439, 81
1449, 81
1460, 82
1470, 82
1481, 82
1491, 83
1502, 83
1513, 83
1523, 83
1533, 83
1544, 83
1555, 84
1565, 84
1575, 84
1587, 84
1597, 84
1607, 84
1617, 85
1629, 85
1639, 85
1649, 85
1660, 85
1671, 85
1681, 86
1692, 86
1702, 86
1712, 86
1723, 86
1734, 86
1744, 87
1754, 88
1766, 87
1776, 87
1786, 88
1796, 89
1808, 90
1818, 91
1828, 91
1839, 91
1850, 91
1860, 92
1870, 93
1881, 93
1892, 93
1902, 93
1913, 93
1923, 93
1934, 94
1945, 95
1955, 95
1965, 95
1976, 95
1987, 96
1997, 96
2007, 97
2019, 98
2029, 97
2039, 98
2049, 98
2061, 99
2071, 99
2081, 99
2092, 99
2103, 99
2113, 99
2123, 100
2134, 100
2145, 100
2155, 100
2166, 100
2176, 101
2187, 102
2198, 102
2208, 102
2218, 102
2230, 103
2240, 104
2250, 104
2261, 104
2272, 105
2282, 105
2293, 106
2303, 107
2314, 107
2325, 107
2335, 108
2345, 108
2357, 110
2367, 110
2377, 110
2388, 111
2399, 111
2409, 112
2420, 112
2430, 113
2441, 112
2452, 113
2462, 113
2472, 114
2484, 114
2494, 114
2504, 114
2515, 114
2526, 115
2536, 115
2547, 114
2557, 115
2568, 115
2579, 116
2589, 116
2599, 116
2611, 115
2621, 115
2631, 116
2642, 117
2653, 117
2663, 117
2674, 118
2684, 118
2695, 119
2706, 120
2716, 121
2726, 120
2738, 121
2748, 122
2758, 122
2769, 122
2779, 122
2790, 122
2801, 122
2811, 123
2821, 122
2833, 122
2843, 123
2853, 122
2864, 123
2875, 123
2885, 123
2896, 123
2906, 123
2917, 123
2928, 124
2938, 124
2948, 124
2960, 124
2970, 124
2980, 125
2991, 125
3002, 126
3012, 125
3023, 125
3033, 127
3044, 126
3055, 127
3065, 126
3075, 126
3087, 126
3097, 127
3107, 127
3118, 127
3129, 127
3139, 127
3150, 127
3160, 127
3171, 127
3182, 127
3192, 126
3202, 127
3214, 127
3224, 127
3234, 126
3245, 127
3256, 127
3266, 127
3277, 127
3287, 127
3298, 127
3309, 127
3319, 127
3329, 127
3340, 127
3351, 127
3361, 127
3371, 127
3383, 127
3393, 127
3403, 127
3414, 127
3425, 127
3435, 127
3446, 127
3456, 127
3467, 127
3478, 127
3488, 127
3498, 127
3510, 127
3520, 127
3530, 127
3541, 127
3552, 128
3562, 127
3573, 127
3583, 127
3594, 127
3605, 127
3615, 127
3625, 127
3637, 127
3647, 127
3657, 127
3668, 128
3679, 127
3689, 127
3700, 127
3710, 127
3721, 127
3732, 127
3742, 128
3752, 127
3764, 127
3774, 127
3784, 128
3795, 127
3806, 127
3816, 127
3827, 127
3837, 127
3848, 127
3859, 127
3869, 127
3879, 127
3891, 127
3901, 128
3911, 127
3922, 127
3933, 127
3943, 128
3954, 127
3964, 128
3975, 127
3986, 127
3996, 127
4006, 128
4018, 128
4028, 128
4038, 127
4049, 127
4059, 128
4070, 128
4081, 128
4091, 127
4101, 128
4113, 128
4123, 128
4133, 128
4144, 128
4155, 128
4165, 128
4176, 128
4186, 128
4197, 129
4208, 128
4218, 128
4228, 128
4240, 129
4250, 129
4260, 128
4271, 129
4282, 128
4292, 129
4303, 129
4313, 129
4324, 129
4335, 130
4345, 131
4355, 131
4367, 131
4377, 131
4387, 131
4398, 131
4409, 132
4419, 132
4430, 132
4440, 132
4451, 132
4462, 132
4472, 133
4482, 133
4493, 133
4504, 132
4514, 133
4524, 133
4536, 133
4546, 133
4556, 133
4567, 133
4578, 134
4588, 134
4599, 134
4609, 133
4620, 133
4631, 134
4641, 134
4651, 134
4663, 134
4673, 134
4683, 134
4694, 134
4705, 134
4715, 134
4726, 134
4736, 134
4747, 135
4758, 135
4768, 135
4778, 135
4790, 135
4800, 136
4810, 136
4821, 136
4832, 135
4842, 136
4853, 136
4863, 137
4874, 137
4885, 137
4895, 137
4905, 137
4917, 137
4927, 137
4937, 137
4948, 137
4959, 137
4969, 137
4980, 138
4990, 138
5001, 138
5012, 138
5022, 138
5032, 139
5044, 139
5054, 139
5064, 139
5075, 139
5086, 140
5096, 140
5107, 140
5117, 140
5128, 140
5139, 140
5149, 141
5159, 140
5171, 141
5181, 140
5191, 140
5202, 141
5213, 141
5223, 141
5234, 141
5244, 141
5255, 141
5266, 142
5276, 141
5286, 141
5298, 141
5308, 141
5318, 141
5329, 142
5339, 142
5350, 142
5361, 142
5371, 143
5381, 144
5393, 144
5403, 144
5413, 145
5424, 145
5435, 145
5445, 146
5456, 147
5466, 147
5477, 147
5488, 148
5498, 148
5508, 148
5520, 148
5530, 148
5540, 149
5551, 148
5562, 149
5572, 148
5583, 149
5593, 149
5604, 149
5615, 149
5625, 149
5635, 149
5647, 149
5657, 150
5667, 150
5678, 150
5689, 149
5699, 150
5710, 150
5720, 150
5731, 150
5742, 150
5752, 150
5762, 150
5774, 151
5784, 151
5794, 152
5805, 152
5816, 152
5826, 152
5837, 152
5847, 152
5858, 152
5869, 152
5879, 153
5889, 153
5901, 153
5911, 154
5921, 154
5932, 154
5943, 155
5953, 155
5964, 155
5974, 155
5985, 155
5996, 156
6006, 156
6016, 156
6028, 156
6038, 156
6048, 156
6059, 156
6070, 157
6080, 157
6091, 157
6101, 157
6112, 157
6122, 157
6133, 157
6143, 157
6154, 157
6165, 158
6175, 158
6185, 158
6197, 159
6207, 159
6217, 160
6228, 161
6239, 161
6249, 162
6260, 162
6270, 163
6281, 164
6292, 164
6302, 164
6312, 164
6324, 164
6334, 164
6344, 165
6355, 165
6366, 165
6376, 164
6387, 165
6397, 165
6408, 165
6419, 165
6429, 165
6439, 165
6451, 166
6461, 166
6471, 166
6482, 166
6493, 166
6503, 166
6514, 167
6524, 167
6535, 167
6546, 167
6556, 167
6566, 168
6578, 168
6588, 168
6598, 168
6609, 168
6619, 169
6630, 169
6641, 169
6651, 170
6661, 170
6673, 171
6683, 171
6693, 172
6704, 172
6715, 172
6725, 172
6736, 173
6746, 173
6757, 173
6768, 173
6778, 173
6788, 173
6800, 173
6810, 173
6820, 173
6831, 173
6842, 173
6852, 173
6863, 173
6873, 173
6884, 173
6895, 173
6905, 174
6915, 174
6927, 174
6937, 174
6947, 174
6958, 174
6969, 174
6979, 175
6990, 175
7000, 175
7011, 175
7022, 175
7032, 175
7042, 176
7054, 176
7064, 175
7074, 176
7085, 176
7096, 176
7106, 176
7117, 176
7127, 176
7138, 176
7149, 176
7159, 176
7169, 176
7181, 176
7191, 177
7201, 176
7212, 177
7223, 177
7233, 177
7244, 177
7254, 177
7265, 177
7276, 177
7286, 177
7296, 177
7308, 178
7318, 178
7328, 178
7339, 178
7350, 178
7360, 178
7370, 178
7381, 178
7392, 178
7402, 178
7413, 178
7423, 179
7434, 179
7445, 179
7455, 179
7465, 179
7477, 179
7487, 179
7497, 179
7508, 179
7519, 179
7529, 179
7540, 179
7550, 179
7561, 179
7572, 179
7582, 179
7592, 179
7604, 180
7614, 180
7624, 180
7635, 179
7646, 180
7656, 180
7667, 180
7677, 180
7688, 180
7699, 180
7709, 180
7719, 180
7731, 180
7741, 180
7751, 180
7762, 180
7773, 181
7783, 181
7794, 181
7804, 180
7815, 181
7826, 181
7836, 181
7846, 181
7858, 180
7868, 180
7878, 181
7889, 181
7899, 181
7910, 180
7921, 180
7931, 181
7941, 181
7953, 181
7963, 181
7973, 180
7984, 180
7995, 181
8005, 181
8016, 181
8026, 180
8037, 180
8048, 181
8058, 181
8068, 181
8080, 181
8090, 180
8100, 181
8111, 181
8122, 181
8132, 181
8143, 180
8153, 181
8164, 181
8175, 181
8185, 181
8195, 181
8207, 181
8217, 181
8227, 181
8238, 182
8249, 181
8259, 181
8270, 181
8280, 182
8291, 182
8302, 182
8312, 182
8322, 182
8334, 183
8344, 183
8354, 183
8365, 182
8376, 183
8386, 183
8397, 183
8407, 183
8418, 183
8429, 183
8439, 183
8449, 183
8461, 183
8471, 183
8481, 183
8492, 183
8503, 183
8513, 183
8524, 183
8534, 184
8545, 183
8556, 183
8566, 183
8576, 183
8588, 183
8598, 183
8608, 184
8619, 184
8630, 183
8640, 183
8651, 183
8661, 183
8672, 183
8683, 184
8693, 184
8703, 183
8715, 183
8725, 183
8735, 184
8746, 183
8757, 183
8767, 183
8778, 183
8788, 183
8799, 183
8810, 184
8820, 183
8830, 183
8842, 183
8852, 184
8862, 183
8873, 183
8884, 183
8894, 183
8905, 183
8915, 183
8926, 183
8937, 183
8947, 183
8957, 183
8969, 184
8979, 183
8989, 184
9000, 183
9011, 183
9021, 183
9032, 183
9042, 183
9053, 183
9064, 183
9074, 183
9084, 183
9095, 183
9106, 183
9116, 183
9126, 184
9138, 183
9148, 183
9158, 184
9169, 183
9179, 183
9190, 183
9201, 183
9211, 184
9221, 183
9233, 183
9243, 184
9253, 183
9264, 184
9275, 184
9285, 183
9296, 183
9306, 183
9317, 183
9328, 183
9338, 183
9348, 183
9360, 183
9370, 184
9380, 184
9391, 183
9402, 183
9412, 184
9423, 183
9433, 183
9444, 183
9455, 183
9465, 183
9475, 183
9487, 183
9497, 183
