1, 0
12, 0
22, 0
32, 0
42, 0
54, 0
64, 0
74, 0
84, 0
94, 0
106, 0
116, 0
126, 0
136, 0
147, 0
158, 0
168, 0
178, 0
189, 0
199, 0
210, 0
220, 0
231, 0
241, 0
252, 0
262, 0
273, 0
283, 0
293, 0
304, 0
315, 0
325, 0
335, 0
345, 0
357, 0
367, 0
377, 0
387, 0
399, 0
409, 0
419, 0
429, 0
440, 0
451, 0
461, 0
471, 0
482, 0
493, 0
503, 0
513, 0
524, 0
534, 0
545, 0
555, 0
566, 0
576, 0
586, 0
597, 0
608, 0
618, 0
628, 0
639, 0
650, 0
660, 0
670, 0
680, 0
691, 1
702, 1
712, 4
722, 4
732, 6
744, 7
754, 8
764, 9
774, 10
786, 11
796, 38
806, 13
816, 15
828, 16
838, 17
848, 19
858, 20
870, 22
880, 23
890, 24
900, 26
912, 27
922, 28
932, 29
942, 30
954, 31
964, 33
974, 33
984, 34
996, 35
1006, 62
1016, 63
1026, 37
1038, 38
1048, 39
1058, 39
1069, 66
1080, 66
1090, 41
1100, 42
1111, 43
1122, 44
1132, 70
1143, 71
1153, 46
1164, 47
1175, 48
1185, 48
1195, 74
1206, 75
1217, 51
1227, 51
1237, 52
1249, 53
1259, 79
1269, 79
1279, 55
1291, 56
1301, 56
1311, 57
1322, 82
1333, 82
1343, 58
1353, 58
1364, 59
1374, 59
1385, 84
1396, 84
1406, 60
1416, 61
1427, 61
1438, 62
1448, 87
1458, 88
1470, 64
1480, 65
1490, 65
1501, 66
1512, 91
1522, 91
1532, 68
1543, 69
1554, 69
1564, 70
1575, 94
1585, 95
1596, 72
1606, 73
1617, 74
1627, 74
1638, 98
1649, 98
1659, 76
1669, 77
1680, 77
1691, 78
1701, 100
1711, 101
1723, 79
1733, 80
1743, 80
1754, 81
1765, 103
1775, 104
1786, 83
1796, 84
1807, 85
1817, 85
1828, 107
1838, 107
1849, 89
1860, 90
1870, 90
1880, 91
1892, 112
1902, 113
1912, 94
1922, 95
1934, 96
1944, 116
1954, 117
1965, 117
1976, 99
1986, 100
1997, 100
2007, 119
2018, 119
2029, 101
2039, 101
2049, 101
2061, 120
2071, 120
2081, 102
2092, 103
2103, 103
2113, 121
2124, 122
2134, 122
2145, 105
2156, 106
2166, 106
2176, 125
2188, 126
2198, 108
2208, 108
2219, 109
2230, 127
2240, 128
2251, 129
2261, 112
2272, 114
2283, 115
2293, 133
2303, 135
2315, 119
2325, 120
2335, 121
2346, 138
2357, 139
2367, 139
2378, 124
2388, 125
2398, 141
2410, 142
2420, 142
2430, 127
2442, 127
2452, 127
2462, 142
2473, 143
2483, 127
2494, 127
2505, 127
2515, 143
2525, 143
2537, 142
2547, 127
2557, 127
2568, 142
2579, 142
2589, 142
2600, 127
2610, 127
2621, 127
2632, 142
2642, 143
2652, 142
2664, 127
2674, 127
2684, 142
2695, 142
2706, 142
2716, 127
2726, 127
2737, 127
2748, 142
2758, 143
2769, 128
2779, 128
2790, 128
2801, 143
2811, 144
2821, 144
2833, 129
2843, 129
2853, 145
2864, 145
2875, 146
2885, 131
2896, 131
2906, 132
2917, 146
2928, 146
2938, 147
2948, 132
2960, 133
2970, 147
2980, 147
2991, 147
3002, 133
3012, 133
3023, 133
3033, 148
3044, 148
3055, 148
3065, 133
3075, 133
3087, 148
3097, 148
3107, 148
3118, 133
3129, 133
3139, 148
3150, 149
3160, 149
3171, 134
3182, 135
3192, 135
3202, 149
3214, 150
3224, 150
3234, 135
3245, 135
3256, 149
3266, 150
3277, 149
3287, 135
3298, 135
3309, 135
3319, 149
3329, 149
3341, 149
3351, 135
3361, 135
3372, 149
3383, 149
3393, 149
3404, 135
3414, 135
3425, 149
3436, 149
3446, 149
3456, 133
3468, 132
3478, 131
3488, 145
3499, 144
3510, 143
3520, 128
3531, 127
3541, 142
3552, 143
3563, 142
3573, 127
3583, 127
3595, 127
3605, 143
3615, 143
3626, 127
3637, 127
3647, 127
3658, 143
3668, 142
3678, 143
3690, 127
3700, 127
3710, 143
3722, 143
3732, 143
3742, 127
3753, 127
3763, 127
3774, 143
3784, 143
3795, 143
3805, 127
3816, 127
3827, 143
3837, 143
3847, 143
3859, 127
3869, 127
3879, 140
3890, 143
3901, 143
3911, 127
3922, 126
3932, 126
3943, 142
3954, 142
3964, 142
3974, 125
3986, 125
3996, 141
4006, 141
4017, 141
4028, 124
4038, 123
4049, 123
4059, 139
4070, 138
4081, 121
4091, 120
4101, 120
4113, 136
4123, 135
4133, 135
4144, 118
4155, 117
4165, 116
4176, 132
4186, 130
4197, 113
4208, 112
4218, 111
4228, 126
4240, 125
4250, 124
4260, 105
4271, 104
4282, 102
4292, 118
4303, 116
4313, 97
4324, 92
4335, 88
4345, 102
4355, 100
4367, 81
4377, 79
4387, 78
4397, 77
4409, 94
4419, 93
4429, 75
4440, 74
4451, 74
4461, 73
4471, 91
4482, 91
4493, 71
4503, 71
4514, 70
4524, 69
4535, 88
4545, 85
4556, 63
4566, 61
4577, 58
4588, 56
4598, 55
4608, 75
4620, 52
4630, 51
4640, 51
4650, 50
4662, 49
4672, 71
4682, 48
4693, 46
4704, 45
4714, 44
4724, 43
4735, 66
4746, 41
4756, 40
4767, 39
4777, 38
4787, 37
4798, 61
4809, 34
4819, 33
4829, 32
4841, 31
4851, 30
4861, 55
4872, 27
4883, 25
4893, 23
4903, 21
4914, 20
4925, 45
4935, 19
4946, 18
4956, 17
4967, 17
4977, 17
4988, 43
4998, 16
5009, 16
5020, 16
5030, 16
5040, 16
5051, 42
5062, 16
5072, 16
5082, 16
5094, 16
5104, 16
5114, 41
5124, 15
5136, 15
5146, 15
5156, 15
5167, 14
5178, 39
5188, 13
5199, 13
5209, 13
5220, 12
5230, 12
5241, 11
5251, 10
5262, 9
5273, 8
5283, 7
5293, 5
5304, 1
5315, 0
5325, 0
5335, 0
5346, 0
5357, 0
5367, 0
5377, 0
5388, 0
5399, 0
5409, 0
5419, 0
5430, 0
5441, 0
5451, 0
5461, 0
5472, 0
5483, 0
5493, 0
5503, 0
5514, 0
5525, 0
5535, 0
5545, 0
5555, 0
5567, 0
5577, 0
5587, 0
5597, 0
5609, 0
5619, 0
5629, 0
5640, 0
5651, 0
5661, 0
5671, 0
5682, 0
5693, 0
5703, 0
5713, 0
5724, 0
5735, 0
5745, 0
5755, 0
5766, 0
5777, 0
5787, 0
5797, 0
5808, 0
5819, 0
5829, 0
5839, 0
5850, 0
5861, 0
5871, 0
5881, 0
5892, 0
5903, 0
5913, 0
5923, 0
5934, 0
5945, 0
5955, 0
5965, 0
5976, 0
5987, 0
5997, 0
6007, 0
6018, 0
6029, 0
6039, 0
6050, 0
6060, 0
6071, 0
6081, 0
6092, 0
6102, 0
6113, 0
6123, 0
6134, 0
6144, 0
6155, 0
6165, 0
6176, 0
6186, 0
6197, 0
6207, 0
6218, 0
6228, 0
6238, 0
6249, 0
6260, 0
6270, 0
6280, 0
6291, 0
6302, 0
6312, 0
6322, 0
6333, 0
6344, 0
6354, 0
6364, 0
6375, 0
6386, 0
6396, 0
6406, 0
6417, 0
6428, 0
6438, 0
6448, 0
6460, 0
6470, 0
6480, 0
6490, 0
6502, 0
6512, 0
6522, 0
6532, 0
6544, 0
6554, 0
6564, 0
6574, 0
6586, 0
6596, 0
6606, 0
6616, 0
6628, 0
6638, 0
6648, 0
6658, 0
6670, 0
6680, 0
6690, 0
6700, 0
6712, 0
6722, 0
6732, 0
6742, 0
6754, 0
6764, 0
6774, 0
6784, 0
6796, 0
6806, 0
6816, 0
6826, 0
6838, 0
6848, 0
6858, 0
6868, 0
6880, 0
6890, 0
6900, 0
6910, 0
6922, 0
6932, 0
6942, 0
6952, 0
6963, 0
6974, 0
6984, 0
6994, 0
7005, 0
7016, 0
7026, 0
7036, 0
7047, 0
7058, 0
7068, 0
7078, 0
7089, 0
7100, 0
7110, 0
7121, 0
7131, 0
7142, 0
7152, 0
7163, 0
7173, 0
7184, 0
7194, 0
7205, 0
7215, 0
7226, 0
7236, 0
7247, 0
7257, 0
7268, 0
7278, 0
7289, 0
7299, 0
7310, 0
7320, 0
7331, 0
7341, 0
7352, 0
7362, 0
7373, 0
7383, 0
7394, 0
7404, 0
7415, 0
7425, 0
7436, 0
7446, 0
7457, 0
7467, 0
7478, 0
7488, 0
7499, 0
7509, 0
7520, 0
7530, 0
7541, 0
7551, 0
7562, 0
7572, 0
7583, 0
7593, 0
7603, 0
7614, 0
7625, 1
7635, 2
7645, 4
7656, 6
7667, 7
7677, 8
7687, 9
7698, 11
7709, 12
7719, 13
7729, 15
7741, 16
7751, 17
7761, 18
7771, 19
7783, 21
7793, 45
7803, 23
7814, 25
7825, 26
7835, 27
7846, 28
7856, 52
7867, 31
7877, 33
7888, 34
7898, 35
7909, 37
7920, 60
7930, 41
7940, 42
7951, 44
7962, 46
7972, 47
7982, 69
7994, 51
8004, 52
8014, 54
8024, 56
8036, 57
8046, 78
8056, 60
8067, 62
8078, 64
8088, 65
8099, 67
8109, 87
8120, 70
8130, 71
8141, 72
8151, 74
8162, 75
8173, 95
8183, 96
8193, 80
8204, 81
8215, 83
8225, 84
8235, 103
8247, 104
8257, 88
8267, 89
8278, 90
8289, 108
8299, 109
8309, 93
8320, 93
8331, 94
8341, 95
8352, 114
8362, 115
8373, 98
8384, 99
8394, 100
8404, 100
8416, 118
8426, 119
8436, 102
8447, 103
8458, 104
8468, 121
8479, 122
8489, 106
8499, 107
8511, 108
8521, 125
8531, 126
8542, 127
8553, 111
8563, 112
8574, 113
8584, 130
8595, 131
8606, 115
8616, 116
8626, 117
8638, 133
8648, 134
8658, 135
8669, 119
8680, 120
8690, 136
8700, 137
8711, 137
8722, 122
8732, 122
8743, 122
8753, 138
8764, 138
8775, 123
8785, 124
8795, 124
8807, 140
8817, 140
8827, 140
8838, 125
8849, 125
8859, 141
8870, 141
8880, 142
8891, 127
8902, 126
8912, 127
8922, 142
8934, 142
8944, 142
8954, 127
8965, 127
8976, 142
8986, 142
8997, 142
9007, 127
9018, 127
9029, 142
9039, 142
9049, 142
9061, 127
9071, 127
9081, 127
9092, 142
9103, 142
9113, 142
9124, 127
9134, 127
9145, 142
9156, 142
9166, 142
9176, 127
9188, 127
9198, 127
9208, 142
9219, 142
9230, 127
9240, 127
9251, 127
9261, 142
9272, 142
9283, 143
9293, 127
9303, 127
9315, 142
9325, 142
9335, 142
9346, 127
9357, 127
9367, 127
9378, 143
9388, 143
9399, 143
9410, 128
9420, 128
9430, 144
9442, 144
9452, 144
9462, 130
9473, 131
9484, 131
9494, 146
9505, 147
9515, 132
9526, 133
9537, 133
9547, 148
9557, 148
9569, 148
9579, 134
9589, 134
9600, 149
9611, 150
9621, 150
9632, 136
9642, 136
9653, 137
9664, 151
9674, 152
9684, 152
9696, 138
9706, 139
9716, 153
9727, 154
9738, 154
9748, 140
9759, 140
9769, 155
9779, 155
9791, 155
9801, 141
9811, 141
9822, 141
9833, 155
9843, 154
9854, 154
9864, 141
9875, 141
9886, 154
9896, 154
9906, 154
9918, 140
9928, 140
9938, 153
9949, 153
9960, 153
9970, 152
9981, 138
9991, 137
10002, 150
10013, 149
10023, 148
10033, 132
10045, 131
10055, 144
10065, 143
10076, 142
10087, 127
10098, 127
10108, 142
10118, 142
10130, 126
10140, 124
10150, 121
10161, 136
10172, 133
10182, 113
10193, 110
10203, 106
10215, 121
10225, 118
10235, 94
10246, 91
10257, 87
10267, 103
10278, 100
10288, 74
10299, 70
10310, 66
10320, 62
10330, 83
10342, 55
10352, 51
10362, 46
10373, 42
10384, 64
10394, 33
10405, 28
10415, 25
10426, 21
10437, 17
10447, 14
10457, 11
10469, 8
10479, 5
10489, 2
10500, 0
10511, 0
10521, 0
10531, 0
10542, 0
10553, 0
10563, 0
10574, 0
10584, 0
10595, 0
10605, 0
10616, 0
10626, 0
10637, 0
10648, 0
10658, 0
10668, 0
10680, 0
10690, 0
10700, 0
10710, 0
10722, 0
10732, 0
10742, 0
10753, 0
10764, 0
10774, 0
10784, 0
10795, 0
10806, 0
10816, 0
10827, 0
10837, 0
10848, 0
10859, 0
10869, 0
10879, 0
10890, 0
10901, 0
10911, 0
10921, 0
10933, 0
10943, 0
10953, 0
10963, 0
10974, 0
10985, 0
10995, 0
11006, 0
11016, 0
11027, 0
11038, 0
11048, 0
11058, 0
11069, 0
11080, 0
11090, 0
11100, 0
11112, 0
11122, 0
11132, 0
11143, 0
11154, 0
11164, 0
11174, 0
11185, 0
11196, 0
11206, 0
11217, 0
11227, 0
11238, 0
11248, 0
11259, 0
11269, 0
11280, 0
11291, 0
11301, 0
11311, 0
11323, 0
11333, 0
11343, 0
11353, 0
11365, 0
11375, 0
11385, 0
11396, 0
11407, 0
11417, 0
11427, 0
11438, 0
11449, 0
11459, 0
11470, 0
11480, 0
11491, 0
11502, 0
11512, 0
11522, 0
11533, 0
11544, 0
11554, 0
11564, 0
11576, 0
11586, 0
11596, 0
11606, 0
11618, 0
11628, 0
11638, 0
11649, 0
11660, 0
11670, 0
11681, 0
11691, 0
11702, 0
11712, 0
11723, 0
11733, 0
11744, 0
11755, 0
11765, 0
11775, 0
11787, 0
11797, 0
11807, 0
11817, 0
11829, 0
11839, 0
11849, 0
11860, 0
11870, 0
11881, 0
11891, 0
11902, 0
11912, 0
11923, 0
11934, 0
11944, 0
11954, 0
11966, 0
11976, 0
11986, 0
11996, 0
12008, 0
12018, 0
12028, 0
12039, 0
12050, 0
12060, 0
12070, 0
12081, 0
12092, 0
12102, 0
12113, 0
12123, 0
12134, 0
12145, 0
12155, 0
12165, 0
12176, 0
12187, 0
12197, 0
12207, 0
12219, 0
12229, 0
12239, 0
12249, 0
12261, 0
12271, 0
12281, 0
12292, 0
12303, 0
12313, 0
12324, 0
12334, 0
12345, 0
12355, 0
12366, 0
12376, 0
12387, 0
12398, 0
12408, 0
12418, 0
12430, 0
12440, 0
12450, 0
12460, 0
12472, 0
12482, 0
12492, 0
12503, 0
12514, 0
12524, 0
12534, 0
12545, 0
12556, 0
12566, 0
12577, 0
12587, 0
12598, 0
12609, 0
12619, 0
12629, 0
12640, 0
12651, 0
12661, 0
12671, 0
12683, 0
12693, 0
12703, 0
12713, 0
12725, 0
12735, 0
12745, 0
12756, 0
12766, 0
12777, 0
12788, 0
12798, 0
12808, 0
12819, 0
12830, 0
12840, 0
12850, 0
12862, 0
12872, 0
12882, 0
12892, 0
12904, 0
12914, 0
12924, 0
12935, 0
12946, 0
12956, 0
12967, 0
12977, 0
12988, 0
12998, 0
13009, 0
13019, 0
13030, 0
13041, 0
13051, 0
13061, 0
13072, 0
13083, 0
13093, 0
13103, 0
13115, 0
13125, 0
13135, 0
13146, 0
13157, 0
13167, 0
13177, 0
13188, 0
13199, 0
13209, 0
13220, 0
13230, 0
13241, 0
13252, 0
13262, 0
13272, 0
13283, 0
13294, 0
13304, 0
13314, 0
13326, 0
13336, 0
13346, 0
13356, 0
13368, 0
13378, 0
13388, 0
13399, 0
13410, 0
13420, 0
13431, 1
13441, 1
13452, 3
13462, 4
13473, 4
13483, 5
13494, 5
13505, 6
13515, 6
13525, 7
13536, 8
13547, 8
13557, 9
13567, 9
13579, 10
13589, 11
13599, 12
13610, 13
13621, 13
13631, 14
13642, 45
13652, 16
13662, 17
13674, 17
13684, 18
13694, 19
13706, 20
13716, 21
13726, 22
13737, 23
13747, 24
13758, 53
13769, 25
13779, 26
13789, 27
13800, 28
13811, 56
13821, 29
13831, 30
13843, 31
13853, 32
13863, 33
13874, 61
13885, 35
13895, 36
13906, 37
13916, 38
13927, 66
13938, 41
13948, 42
13958, 43
13970, 44
13980, 71
13990, 73
14001, 48
14012, 49
14022, 50
14033, 51
14043, 78
14054, 54
14065, 55
14075, 56
14085, 57
14097, 84
14107, 85
14117, 61
14128, 63
14139, 64
14149, 89
14160, 90
14170, 68
14181, 69
14192, 71
14202, 72
14212, 97
14224, 98
14234, 77
14244, 78
14255, 80
14266, 103
14276, 104
14287, 84
14297, 85
14308, 87
14319, 109
14329, 110
14340, 90
14351, 91
14361, 93
14372, 114
14382, 115
14393, 96
14404, 97
14414, 98
14424, 118
14436, 119
14446, 120
14456, 101
14467, 101
14478, 121
14488, 121
14499, 104
14509, 104
14521, 105
14531, 124
14541, 125
14552, 107
14563, 108
14573, 108
14584, 128
14594, 128
14605, 111
14616, 112
14626, 112
14637, 131
14648, 131
14658, 114
14669, 115
14679, 115
14690, 135
14701, 135
14711, 118
14722, 119
14733, 119
14743, 137
14754, 137
14764, 121
14775, 121
14786, 139
14796, 139
14806, 140
14818, 123
14828, 124
14839, 141
14849, 142
14860, 141
14871, 125
14881, 126
14891, 142
14903, 143
14913, 143
14924, 127
14934, 127
14945, 143
14956, 143
14966, 143
14976, 127
14988, 127
14998, 143
15008, 143
15019, 143
15030, 127
15041, 127
15051, 143
15061, 143
15073, 127
15083, 127
15093, 127
15104, 143
15115, 143
15126, 127
15136, 127
15146, 127
15158, 142
15168, 142
15178, 127
15189, 127
15200, 140
15210, 142
15221, 142
15231, 127
15243, 127
15253, 142
15263, 142
15274, 142
15285, 127
15295, 127
15306, 142
15316, 142
15328, 142
15338, 127
15348, 127
15359, 141
15370, 141
15380, 141
15391, 124
15401, 123
15413, 138
15423, 138
15433, 136
15444, 119
15454, 119
15465, 134
15476, 133
15486, 116
15496, 115
15508, 114
15518, 130
15529, 129
15539, 111
15550, 109
15561, 108
15571, 125
15581, 123
15593, 104
15603, 103
15614, 102
15624, 119
15635, 118
15646, 98
15656, 97
15666, 95
15678, 112
15688, 111
15698, 90
15709, 89
15720, 87
15730, 106
15741, 105
15751, 84
15762, 82
15773, 81
15783, 101
15793, 99
15805, 77
15815, 76
15825, 74
15836, 73
15847, 93
15857, 92
15868, 69
15878, 68
15889, 66
15900, 88
15910, 88
15920, 64
15932, 63
15942, 62
15952, 61
15963, 84
15974, 60
15984, 59
15995, 58
16005, 57
16016, 81
16027, 80
16037, 55
16047, 55
16059, 54
16069, 53
16079, 77
16090, 52
16101, 51
16111, 51
16122, 50
16132, 75
16143, 49
16154, 49
16164, 48
16174, 48
16186, 73
16196, 73
16206, 47
16217, 46
16228, 46
16238, 46
16249, 71
16259, 45
16270, 44
16281, 44
16291, 44
16301, 69
16313, 68
16323, 43
16333, 42
16344, 42
16355, 42
16365, 68
16376, 41
16386, 41
16397, 40
16408, 40
16418, 66
16428, 39
16440, 39
16450, 38
16460, 38
16471, 37
16482, 37
16492, 37
16503, 36
16513, 36
16524, 35
16535, 61
16545, 35
16555, 34
16567, 33
16577, 33
16587, 60
16598, 32
16609, 31
16619, 31
16630, 30
16640, 30
16651, 29
16662, 28
16672, 28
16682, 27
16694, 27
16704, 54
16714, 25
16725, 25
16736, 24
16746, 24
16756, 23
16767, 23
16778, 22
16788, 21
16799, 21
16809, 20
16819, 49
16831, 20
16841, 19
16851, 18
16862, 18
16873, 17
16883, 17
16894, 16
16904, 16
16915, 15
16926, 15
16936, 14
16946, 14
16958, 13
16968, 13
16978, 12
16989, 42
17000, 11
17010, 11
17021, 10
17031, 10
17042, 9
17053, 8
17063, 8
17073, 7
17085, 6
17095, 5
17105, 5
17115, 4
17127, 2
17137, 1
17147, 1
17158, 0
17169, 0
17179, 0
17189, 0
17200, 0
17211, 0
17221, 0
17232, 0
17242, 0
17253, 0
17264, 0
17274, 0
17284, 0
17295, 0
17306, 0
17316, 0
17326, 0
17338, 0
17348, 0
17358, 0
17369, 0
17380, 0
17390, 0
17400, 0
17411, 0
17422, 0
17432, 0
17443, 0
17453, 0
17464, 0
17474, 0
17485, 0
17495, 0
17506, 0
17517, 0
17527, 0
17537, 0
17549, 0
17559, 0
17569, 0
17579, 0
17591, 0
17601, 0
17611, 0
17622, 0
17633, 0
17643, 0
17653, 0
17664, 0
17675, 0
17685, 0
17696, 0
17706, 0
17717, 0
17728, 0
17738, 0
17748, 0
17758, 0
17770, 0
17780, 0
17790, 0
17802, 0
17812, 0
17822, 0
17832, 0
17843, 0
17854, 0
17864, 0
17875, 0
17885, 0
17896, 0
17907, 0
17917, 0
17927, 0
17938, 0
17949, 0
17959, 0
17969, 0
17981, 0
17991, 0
18001, 0
18012, 0
18023, 0
18033, 0
18043, 0
18054, 0
18065, 0
18075, 0
18086, 0
18096, 0
18107, 0
18117, 0
18128, 0
18138, 0
18149, 0
18160, 0
18170, 0
18180, 0
18192, 0
18202, 0
18212, 0
18222, 0
18234, 0
18244, 0
18254, 0
18265, 0
18276, 0
18286, 0
18296, 0
18307, 0
18318, 0
18328, 0
18339, 0
18349, 0
18360, 0
18371, 0
18381, 0
18391, 0
18402, 0
18413, 0
18423, 0
18433, 0
18445, 0
18455, 0
18465, 0
18475, 0
18487, 0
18497, 0
18507, 0
18518, 0
18529, 0
18539, 0
18550, 0
18560, 0
18571, 0
18581, 0
18592, 0
18602, 0
18613, 0
18624, 0
18634, 0
18644, 0
18654, 0
18666, 0
18676, 0
18686, 0
18698, 0
18708, 0
18718, 0
18729, 0
18739, 0
18750, 0
18760, 0
18771, 0
18781, 0
18792, 0
18803, 0
18813, 0
18823, 0
18835, 0
18845, 0
18855, 0
18865, 0
18877, 0
18887, 0
18897, 0
18908, 0
18919, 0
18929, 0
18939, 0
18950, 0
18961, 0
18971, 0
18982, 0
18992, 0
19003, 0
19014, 0
19024, 0
19034, 0
19045, 0
19056, 0
19066, 0
19076, 0
19088, 0
19098, 0
19108, 0
19118, 0
19130, 0
19140, 0
19150, 0
19161, 0
19172, 0
19182, 0
19193, 0
19203, 0
19214, 0
19224, 0
19235, 0
19245, 0
19256, 0
19267, 0
19277, 0
19287, 0
19298, 0
19309, 0
19319, 0
19329, 0
19341, 0
19351, 0
19361, 0
19372, 0
19383, 0
19393, 0
19403, 0
19414, 0
19425, 0
19435, 0
19446, 0
19456, 0
19467, 0
19478, 0
19488, 0
19498, 0
19509, 0
19520, 0
19530, 0
19540, 0
19552, 0
19562, 0
19572, 0
19582, 0
19594, 0
19604, 0
19614, 0
19625, 0
19635, 0
19646, 0
19657, 0
19667, 0
19677, 0
19688, 0
19699, 0
19709, 0
19719, 0
19731, 0
19741, 0
19751, 0
19761, 0
19773, 0
19783, 0
19793, 0
19804, 0
19815, 0
19825, 0
19836, 0
19846, 0
19857, 0
19867, 0
19878, 0
19888, 0
19899, 0
19910, 0
19920, 0
19930, 0
19942, 0
19952, 0
19962, 0
19972, 0
19984, 0
19994, 0
20004, 0
20015, 0
20026, 0
20036, 0
20046, 0
20057, 0
20068, 0
20078, 0
20089, 0
20099, 0
20110, 0
20121, 0
20131, 0
20141, 0
20152, 0
20163, 0
20173, 0
20183, 0
20195, 0
20205, 0
20215, 0
20225, 0
20237, 0
20247, 0
20257, 0
20268, 0
20279, 0
20289, 0
20300, 0
20310, 0
20321, 0
20331, 0
20342, 0
20352, 0
20363, 0
20374, 0
20384, 0
20394, 0
20406, 0
20416, 0
20426, 0
20436, 0
20448, 0
20458, 0
20468, 0
20479, 0
20490, 0
20500, 0
20510, 0
20521, 0
20531, 0
20542, 0
20553, 0
20563, 0
20573, 0
20585, 0
20595, 0
20605, 0
20615, 0
20627, 0
20637, 0
20647, 0
20658, 0
20669, 0
20679, 0
20689, 0
20700, 0
20711, 0
20721, 0
