1, 127
12, 127
22, 127
32, 127
43, 127
54, 127
64, 127
74, 127
85, 127
96, 127
106, 127
116, 127
127, 127
138, 127
148, 127
159, 127
169, 127
180, 127
190, 127
201, 127
211, 127
222, 127
233, 127
243, 127
253, 127
265, 127
275, 127
285, 127
295, 127
307, 127
317, 127
327, 127
338, 127
349, 127
359, 127
369, 127
380, 127
391, 127
401, 127
412, 127
422, 127
433, 127
443, 127
454, 127
464, 127
475, 127
486, 127
496, 127
506, 127
517, 127
528, 127
538, 127
548, 127
560, 127
570, 127
580, 127
590, 127
602, 127
612, 127
622, 127
633, 127
644, 127
654, 127
664, 127
675, 127
685, 127
696, 127
707, 127
717, 127
727, 127
738, 127
749, 127
759, 127
769, 127
781, 127
791, 127
801, 127
811, 127
823, 127
833, 127
843, 127
854, 127
865, 127
875, 127
886, 127
896, 127
907, 127
917, 127
928, 127
938, 127
949, 127
960, 127
970, 127
980, 127
991, 126
1002, 126
1012, 126
1022, 125
1034, 125
1044, 125
1054, 125
1065, 124
1076, 124
1086, 124
1097, 124
1107, 124
1118, 124
1129, 123
1139, 123
1149, 123
1161, 123
1171, 123
1181, 122
1192, 122
1203, 122
1213, 122
1224, 121
1234, 121
1245, 121
1256, 121
1266, 120
1276, 120
1288, 119
1298, 119
1308, 118
1319, 118
1330, 117
1340, 117
1351, 117
1361, 116
1372, 116
1383, 115
1393, 115
1403, 114
1415, 114
1425, 113
1435, 113
1446, 112
1457, 112
1467, 111
1478, 111
1488, 110
1499, 110
1510, 110
1520, 109
1530, 109
1542, 108
1552, 108
1562, 107
1573, 106
1584, 106
1594, 106
1605, 105
1615, 104
1626, 104
1636, 103
1647, 103
1657, 102
1668, 102
1679, 101
1689, 101
1699, 100
1711, 100
1721, 99
1731, 99
1742, 99
1753, 98
1763, 98
1774, 98
1784, 98
1794, 97
1805, 97
1816, 97
1826, 96
1836, 96
1848, 95
1858, 95
1868, 94
1878, 94
1890, 93
1900, 92
1910, 91
1921, 91
1932, 90
1942, 90
1952, 89
1963, 89
1974, 88
1984, 87
1995, 87
2005, 87
2016, 86
2027, 86
2037, 85
2047, 85
2058, 84
2069, 84
2079, 84
2089, 83
2101, 83
2111, 82
2121, 82
2131, 82
2143, 81
2153, 81
2163, 80
2174, 80
2185, 80
2195, 80
2205, 80
2216, 79
2227, 79
2237, 79
2248, 79
2258, 78
2269, 78
2279, 78
2290, 78
2300, 77
2311, 77
2322, 77
2332, 76
2342, 76
2353, 75
2364, 75
2374, 75
2384, 74
2396, 74
2406, 73
2416, 73
2426, 72
2438, 72
2448, 72
2458, 72
2469, 71
2480, 71
2490, 71
2501, 71
2511, 70
2522, 70
2532, 70
2543, 69
2553, 69
2564, 69
2575, 69
2585, 69
2595, 68
2605, 68
2617, 68
2627, 68
2637, 68
2649, 67
2659, 67
2669, 67
2679, 67
2690, 67
2701, 67
2711, 66
2722, 66
2732, 66
2743, 66
2753, 66
2764, 65
2774, 65
2785, 65
2796, 65
2806, 65
2816, 64
2828, 64
2838, 64
2848, 64
2858, 64
2870, 64
2880, 64
2890, 63
2901, 63
2912, 63
2922, 63
2932, 63
2943, 62
2954, 62
2964, 62
2975, 62
2985, 62
2996, 61
3006, 61
3017, 61
3027, 61
3038, 60
3049, 60
3059, 60
3069, 59
3080, 59
3091, 59
3101, 59
3111, 59
3123, 58
3133, 58
3143, 58
3153, 57
3165, 57
3175, 57
3185, 57
3196, 57
3207, 57
3217, 57
3228, 56
3238, 56
3249, 56
3259, 56
3270, 56
3280, 56
3291, 55
3302, 55
3312, 55
3322, 55
3333, 55
3344, 54
3354, 54
3364, 54
3376, 54
3386, 53
3396, 53
3406, 52
3418, 52
3428, 52
3438, 51
3449, 51
3460, 51
3470, 51
3480, 50
3491, 50
3501, 49
3512, 49
3523, 49
3533, 48
3543, 48
3554, 48
3565, 47
3575, 47
3585, 47
3597, 46
3607, 46
3617, 46
3627, 45
3639, 45
3649, 45
3659, 44
3670, 44
3681, 44
3691, 43
3702, 43
3712, 43
3723, 43
3733, 42
3744, 42
3754, 42
3765, 41
3776, 41
3786, 40
3796, 40
3807, 39
3818, 39
3828, 38
3838, 38
3850, 37
3860, 37
3870, 37
3880, 36
3892, 36
3902, 36
3912, 36
3923, 35
3934, 35
3944, 35
3954, 34
3965, 34
3976, 34
3986, 34
3997, 33
4007, 33
4018, 33
4028, 32
4039, 32
4049, 31
4060, 31
4071, 30
4081, 30
4091, 29
4102, 29
4113, 28
4123, 28
4133, 28
4145, 27
4155, 27
4165, 26
4176, 26
4187, 26
4197, 25
4207, 25
4218, 25
4229, 25
4239, 25
4250, 24
4260, 24
4271, 23
4281, 24
4292, 23
4302, 23
4313, 23
4324, 23
4334, 22
4344, 22
4354, 22
4366, 21
4376, 21
4386, 21
4397, 20
4408, 20
4418, 19
4428, 19
4439, 18
4450, 18
4460, 18
4471, 17
4481, 17
4492, 17
4502, 16
4513, 16
4523, 15
4534, 15
4545, 15
4555, 14
4565, 14
4576, 13
4587, 13
4597, 13
4607, 12
4619, 12
4629, 12
4639, 11
4650, 11
4661, 11
4671, 10
4681, 10
4692, 10
4703, 9
4713, 9
4723, 9
4734, 9
4745, 8
4755, 8
4765, 8
4776, 7
4787, 7
4797, 7
4807, 6
4818, 6
4829, 5
4839, 5
4849, 5
4860, 5
4871, 4
4881, 4
4891, 4
4902, 3
4913, 3
4923, 3
4934, 2
4944, 2
4955, 1
4965, 1
4976, 1
4986, 1
4997, 0
5007, 0
5018, 0
5028, 0
5039, 0
5049, 0
5060, 0
5070, 0
5081, 0
5091, 0
5102, 0
5112, 0
5122, 0
5133, 0
5144, 0
5154, 0
5164, 0
5175, 0
5186, 0
5196, 0
5206, 0
5217, 0
5228, 0
5238, 0
5248, 0
5259, 0
5270, 0
5280, 0
5290, 0
5301, 0
5312, 0
5322, 0
5332, 0
5344, 0
5354, 0
5364, 0
5374, 0
5386, 0
5396, 0
5406, 0
5416, 0
5428, 0
5438, 0
5448, 0
5458, 0
5470, 0
5480, 0
5490, 0
5500, 0
5512, 0
5522, 0
5532, 0
5542, 0
5554, 0
5564, 0
5574, 0
5584, 0
5596, 0
5606, 0
5616, 0
5626, 0
5638, 0
5648, 0
5658, 0
5668, 0
5680, 0
5690, 0
5700, 0
5710, 0
5722, 0
5732, 0
5742, 0
5753, 0
5764, 0
5774, 0
5784, 0
5795, 0
5805, 0
5816, 0
5826, 0
5837, 0
5847, 0
5858, 0
5868, 0
5879, 0
5889, 0
5900, 0
5910, 0
5921, 0
5931, 0
5942, 0
5952, 0
5963, 0
5973, 0
5984, 0
5994, 0
6005, 0
6015, 0
6026, 0
6036, 0
6047, 0
6057, 0
6068, 0
6079, 0
6089, 0
6099, 0
6110, 0
6121, 0
6131, 0
6141, 0
6152, 0
6163, 0
6173, 0
6183, 0
6194, 0
6205, 0
6215, 0
6225, 0
6236, 0
6247, 0
6257, 0
6267, 0
6278, 0
6289, 0
6299, 0
6309, 0
6320, 0
6331, 0
6341, 0
6351, 0
6362, 0
6373, 0
6383, 0
6393, 0
6404, 0
6415, 0
6425, 0
6435, 0
6445, 0
6457, 0
6467, 0
6477, 0
6487, 0
6499, 0
6509, 0
6519, 0
6529, 0
6541, 0
6551, 0
6561, 0
6571, 0
6583, 0
6593, 0
6603, 0
6614, 0
6625, 0
6635, 0
6645, 0
6656, 0
6667, 0
6677, 0
6687, 0
6698, 0
6709, 0
6719, 0
6729, 0
6740, 0
6751, 0
6761, 0
6771, 0
6782, 0
6793, 0
6803, 0
6813, 0
6824, 0
6835, 0
6845, 0
6855, 0
6866, 0
6877, 0
6887, 0
6897, 0
6908, 0
6919, 0
6929, 0
6939, 0
6950, 0
6961, 0
6971, 0
6981, 0
6992, 0
7003, 0
7013, 0
7023, 0
7034, 0
7045, 0
7055, 0
7065, 0
7076, 0
7087, 0
7097, 0
7107, 0
7118, 0
